ISSS608 - Take Home Ex 3
…
#Filter 3Room, 4Room, 5Room
HDBRoom <- HDB %>% filter(flat_type=="3 ROOM" | flat_type=="4 ROOM" | flat_type=="5 ROOM") %>%
  separate(month, into = c("year", "month")) %>% 
  filter(year == "2022") %>%
  separate(remaining_lease, into = c("rmlease_years", "rmlease_month"), sep = "years") 

HDBRoom$rmlease_years <- as.numeric(HDBRoom$rmlease_years)

HDBRoom$rmlease_month <- gsub("[monthsmonth]", " ", HDBRoom$rmlease_month) %>%
  as.numeric(HDBRoom$rmlease_month) / 12 

HDBRoom

# A tibble: 24,374 × 14
   year  month town       flat_t…¹ block stree…² store…³ floor…⁴ flat_…⁵ lease…⁶
   <chr> <chr> <chr>      <chr>    <chr> <chr>   <chr>     <dbl> <chr>     <dbl>
 1 2022  01    ANG MO KIO 3 ROOM   320   ANG MO… 07 TO …      73 New Ge…    1977
 2 2022  01    ANG MO KIO 3 ROOM   225   ANG MO… 07 TO …      67 New Ge…    1978
 3 2022  01    ANG MO KIO 3 ROOM   331   ANG MO… 07 TO …      68 New Ge…    1981
 4 2022  01    ANG MO KIO 3 ROOM   534   ANG MO… 07 TO …      82 New Ge…    1980
 5 2022  01    ANG MO KIO 3 ROOM   578   ANG MO… 04 TO …      67 New Ge…    1980
 6 2022  01    ANG MO KIO 3 ROOM   452   ANG MO… 01 TO …      83 New Ge…    1979
 7 2022  01    ANG MO KIO 3 ROOM   560   ANG MO… 01 TO …      67 New Ge…    1980
 8 2022  01    ANG MO KIO 3 ROOM   435   ANG MO… 04 TO …      67 New Ge…    1979
 9 2022  01    ANG MO KIO 3 ROOM   435   ANG MO… 04 TO …      67 New Ge…    1979
10 2022  01    ANG MO KIO 3 ROOM   560   ANG MO… 10 TO …      67 New Ge…    1980
# … with 24,364 more rows, 4 more variables: rmlease_years <dbl>,
#   rmlease_month <dbl>, resale_price <dbl>, price_per_sqm <dbl>, and
#   abbreviated variable names ¹​flat_type, ²​street_name, ³​storey_range,
#   ⁴​floor_area_sqm, ⁵​flat_model, ⁶​lease_commence_date
…
HDBDATA <- HDBRoom [,!names(HDBRoom) %in% c("year", "block", "street_name", "rmlease_years", "rmlease_month", "flat_model")]

HDBDATA

# A tibble: 24,374 × 9
   month town       flat_type storey_r…¹ floor…² lease…³ resal…⁴ price…⁵ rmlease
   <chr> <chr>      <chr>     <fct>        <dbl>   <dbl>   <dbl>   <dbl>   <dbl>
 1 01    ANG MO KIO 3 ROOM    07 - 09         73    1977  358000   4904.    54.4
 2 01    ANG MO KIO 3 ROOM    07 - 09         67    1978  355000   5299.    55.1
 3 01    ANG MO KIO 3 ROOM    07 - 09         68    1981  338000   4971.    58  
 4 01    ANG MO KIO 3 ROOM    07 - 09         82    1980  420000   5122.    57.2
 5 01    ANG MO KIO 3 ROOM    04 - 06         67    1980  328000   4896.    57.1
 6 01    ANG MO KIO 3 ROOM    01 - 03         83    1979  360000   4337.    56.6
 7 01    ANG MO KIO 3 ROOM    01 - 03         67    1980  300000   4478.    57.2
 8 01    ANG MO KIO 3 ROOM    04 - 06         67    1979  333000   4970.    56.1
 9 01    ANG MO KIO 3 ROOM    04 - 06         67    1979  386000   5761.    56.1
10 01    ANG MO KIO 3 ROOM    10 - 12         67    1980  330000   4925.    57.2
# … with 24,364 more rows, and abbreviated variable names ¹​storey_range,
#   ²​floor_area_sqm, ³​lease_commence_date, ⁴​resale_price, ⁵​price_per_sqm
…
