ISSS608 - Take Home Ex 2
…
Remake

pacman::p_load(tidyverse, patchwork, ggthemes, hrbrthemes,ggrepel,dplyr,prettyR, rmarkdown, XML, reshape2, plyr) 

#| echo: false
  Popdata <- read_csv("data/respopagesextod2022.csv", show_col_types = FALSE)
Popdata

# A tibble: 100,928 × 7
   PA         SZ                     AG     Sex     TOD                Pop  Time
   <chr>      <chr>                  <chr>  <chr>   <chr>            <dbl> <dbl>
 1 Ang Mo Kio Ang Mo Kio Town Centre 0_to_4 Males   HDB 1- and 2-Ro…     0  2022
 2 Ang Mo Kio Ang Mo Kio Town Centre 0_to_4 Males   HDB 3-Room Flats    10  2022
 3 Ang Mo Kio Ang Mo Kio Town Centre 0_to_4 Males   HDB 4-Room Flats    10  2022
 4 Ang Mo Kio Ang Mo Kio Town Centre 0_to_4 Males   HDB 5-Room and …    30  2022
 5 Ang Mo Kio Ang Mo Kio Town Centre 0_to_4 Males   HUDC Flats (exc…     0  2022
 6 Ang Mo Kio Ang Mo Kio Town Centre 0_to_4 Males   Condominiums an…    50  2022
 7 Ang Mo Kio Ang Mo Kio Town Centre 0_to_4 Males   Landed Properti…     0  2022
 8 Ang Mo Kio Ang Mo Kio Town Centre 0_to_4 Males   Others               0  2022
 9 Ang Mo Kio Ang Mo Kio Town Centre 0_to_4 Females HDB 1- and 2-Ro…     0  2022
10 Ang Mo Kio Ang Mo Kio Town Centre 0_to_4 Females HDB 3-Room Flats     0  2022
# … with 100,918 more rows
…
